In-class Ex 5
…
Computing Local Gi* Statistics

HCSA <- wm_idw %>%
  mutate(local_Gi = local_gstar_perm(
    GDPPC, nb, wts, nsim = 99),
    .before = 1) %>%
  unnest(local_Gi)
HCSA

Simple feature collection with 88 features and 18 fields
Geometry type: POLYGON
Dimension:     XY
Bounding box:  xmin: 108.7831 ymin: 24.6342 xmax: 114.2544 ymax: 30.12812
Geodetic CRS:  WGS 84
# A tibble: 88 × 19
    gi_star cluster     e_gi  var_gi std_dev p_value p_sim p_folded_sim skewness
      <dbl> <fct>      <dbl>   <dbl>   <dbl>   <dbl> <dbl>        <dbl>    <dbl>
 1  0.261   Low     0.00132  1.82e-7  0.0839 9.33e-1  0.7          0.35    1.20 
 2 -0.276   Low     0.00102  7.98e-8 -0.266  7.90e-1  0.92         0.46    0.717
 3  0.00573 High    0.00148  2.25e-7  0.0920 9.27e-1  0.72         0.36    1.54 
 4  0.528   High    0.00147  2.72e-7  0.506  6.13e-1  0.38         0.19    1.55 
 5  0.466   High    0.00140  2.76e-7  0.337  7.36e-1  0.48         0.24    1.46 
 6 -0.445   High    0.000928 8.31e-8 -0.321  7.48e-1  0.9          0.45    1.21 
 7  2.99    High    0.000676 4.28e-8  3.17   1.54e-3  0.04         0.02    1.29 
 8  2.04    High    0.00148  1.25e-7  2.11   3.49e-2  0.1          0.05    1.32 
 9  4.42    High    0.00132  1.32e-7  3.93   8.49e-5  0.02         0.01    1.27 
10  1.21    Low     0.00180  1.46e-7  1.24   2.15e-1  0.28         0.14    0.521
# ℹ 78 more rows
# ℹ 10 more variables: kurtosis <dbl>, nb <nb>, wts <list>, NAME_2 <chr>,
#   ID_3 <int>, NAME_3 <chr>, ENGTYPE_3 <chr>, County <chr>, GDPPC <dbl>,
#   geometry <POLYGON [°]>
…
